{
  "installed": {
    "client_id": "738091103325-20d56lddjdracnkuntpf93t9r3jieomm.apps.googleusercontent.com",
    "project_id": "task-2658725-1604345069987",
    "auth_uri": "https://accounts.google.com/o/oauth2/auth",
    "token_uri": "https://oauth2.googleapis.com/token",
    "auth_provider_x509_cert_url": "https://www.googleapis.com/oauth2/v1/certs",
    "client_secret": "LFn0SmZtIVskg4Y5Rq-PCzIW",
    "redirect_uris": [
      "urn:ietf:wg:oauth:2.0:oob",
      "http://localhost"
    ]
  }
}